Wrangling & Exploratory Data Analysis
…
# mutate used to create categorical variables
county_join <- county_join %>% mutate(rate_cat = ifelse(Rate > 
    8, "high", ifelse(Rate <= 8 & 4 <= Rate, "med", "low")))
county_join <- county_join %>% mutate(ICU_cat = ifelse(`ICU Beds` > 
    250, "high", "low"))

# arrange by greatest to least number of COVID cases and
# greatest to least number of ICU beds
county_join %>% arrange(desc(cases))

## # A tibble: 251 x 12
##    County fips   cases deaths  Rate `ICU Beds` `Total Populati… `Population Age…
##    <chr>  <chr>  <dbl>  <dbl> <dbl>      <dbl>            <dbl>            <dbl>
##  1 Harris 48201 146234   2615   5.1        918          4525519           651673
##  2 Dallas 48113  86500   1139   3.8        614          2552213           377154
##  3 Bexar  48029  58051   1323   3.7        648          1892004           307269
##  4 Tarra… 48439  51081    728   3.7        409          1983675           306980
##  5 Hidal… 48215  32346   1740   6.7        271           839539           119536
##  6 Travis 48453  29647    430   3.1        294          1176584           160972
##  7 El Pa… 48141  24999    531   4.8        203           834825           133011
##  8 Camer… 48061  22917    953   6.6        104           420201            71392
##  9 Nueces 48355  20661    419   5.3        115           358484            68411
## 10 Fort … 48157  16572    292   5          128           711421           107897
## # … with 241 more rows, and 4 more variables: `Percent of Population Aged
## #   60+` <dbl>, `Residents Aged 60+ Per Each ICU Bed` <chr>, rate_cat <chr>,
## #   ICU_cat <chr>

county_join %>% arrange(desc(`ICU Beds`))

## # A tibble: 251 x 12
##    County fips   cases deaths  Rate `ICU Beds` `Total Populati… `Population Age…
##    <chr>  <chr>  <dbl>  <dbl> <dbl>      <dbl>            <dbl>            <dbl>
##  1 Harris 48201 146234   2615   5.1        918          4525519           651673
##  2 Bexar  48029  58051   1323   3.7        648          1892004           307269
##  3 Dallas 48113  86500   1139   3.8        614          2552213           377154
##  4 Tarra… 48439  51081    728   3.7        409          1983675           306980
##  5 Travis 48453  29647    430   3.1        294          1176584           160972
##  6 Hidal… 48215  32346   1740   6.7        271           839539           119536
##  7 Lubbo… 48303  12398    131   3.2        267           298042            49312
##  8 El Pa… 48141  24999    531   4.8        203           834825           133011
##  9 Collin 48085  14154    150   3.4        195           914075           135322
## 10 Smith  48423   4969    108   4.4        194           222277            47438
## # … with 241 more rows, and 4 more variables: `Percent of Population Aged
## #   60+` <dbl>, `Residents Aged 60+ Per Each ICU Bed` <chr>, rate_cat <chr>,
## #   ICU_cat <chr>
…
# same as above except now grouped by rate_cat using
# group_by()
county_join %>% group_by(rate_cat) %>% summarize_if(is.numeric, 
    list(mean, sd, n_distinct, min, max)) %>% pivot_longer(cols = 2:35, 
    names_to = "statistic", values_to = "value") %>% separate(statistic, 
    sep = "_", into = c("variable", "statistic")) %>% pivot_wider(names_from = "statistic", 
    values_from = "value") %>% rename(mean = fn1, sd = fn2, n_distinct = fn3, 
    min = fn4, max = fn5) %>% select(-c(`Percent of Population Aged 60+_fn5`))

## # A tibble: 21 x 7
##    rate_cat variable                     mean       sd n_distinct    min     max
##    <chr>    <chr>                       <dbl>    <dbl>      <dbl>  <dbl>   <dbl>
##  1 high     cases                      9.58e2  1.31e+3         13   82    3789  
##  2 high     deaths                     3.72e1  5.21e+1         12    3     170  
##  3 high     Rate                       1.04e1  1.45e+0         13    8.5    13.7
##  4 high     ICU Beds                   1.38e0  3.40e+0          3    0      10  
##  5 high     Total Population           2.10e4  1.98e+4         13 5262   63420  
##  6 high     Population Aged 60+        4.06e3  2.91e+3         13 1372    9636  
##  7 high     Percent of Population Ag…  2.28e1  6.97e+0         13   15.2    NA  
##  8 low      cases                      4.75e3  1.37e+4         67    1   86500  
##  9 low      deaths                     7.48e1  2.21e+2         41    0    1323  
## 10 low      Rate                       3.38e0  4.58e-1         18    1.7     3.9
## # … with 11 more rows
…
